200 	647.123  14.4819
205 	576.264  14.3825
210 	514.437  14.3718
215 	459.222  14.2586
220 	411.197  14.2776
225 	368.664  14.1002
230 	331.203  14.1749
235 	297.854  14.2164
240 	268.031  14.0526
245 	241.675  14.017
250 	218.466  13.9076
255 	197.78  13.9698
260 	179.031  14.0635
265 	162.892  13.7607
270 	147.722  14.1152
275 	134.621  13.7035
280 	122.495  14.0755
285 	111.92  13.9511
290 	102.257  13.8374
295 	93.5774  13.8143
300 	85.6773  13.7874
305 	78.5774  13.7698
310 	72.17  13.7373
315 	66.3205  13.71
320 	61.0706  13.6885
325 	56.2826  13.6791
330 	51.9003  13.6959
335 	47.9148  13.6427
340 	44.2862  13.7132
345 	40.9551  13.7445
350 	37.9377  13.7445
355 	35.1596  13.5904
360 	32.6448  13.5424
365 	30.273  13.644
370 	28.2051  13.7116
375 	26.1927  13.5839
380 	24.4302  13.627
385 	22.7675  13.6255
390 	21.2082  13.671
395 	19.7936  13.4109
400 	18.4856  13.6049
405 	17.2226  13.5856
410 	16.1212  13.7752
415 	15.062  13.6937
420 	14.1029  13.579
425 	13.1981  13.749
430 	12.3438  13.6286
435 	11.5839  13.359
440 	10.8808  13.5647
445 	10.2027  13.5204
450 	9.57232  13.4818
455 	8.99484  13.4881
460 	8.45567  13.4068
465 	7.94683  13.4272
470 	7.47989  13.3942
475 	7.0409  13.3916
480 	6.63465  13.3295
485 	6.24667  13.2972
490 	5.88974  13.3993
495 	5.55371  13.3035
500 	5.24259  13.3117
505 	4.95179  13.2598
510 	4.66923  13.2386
515 	4.40697  13.2169
520 	4.16639  13.1123
525 	3.94057  13.1741
530 	3.72433  13.2043
535 	3.52298  13.1003
540 	3.32856  13.1226
545 	3.15229  13.1523
550 	2.9864  13.133
555 	2.83204  13.1168
560 	2.681  12.9114
565 	2.54074  13.0752
570 	2.40583  13.0504
575 	2.28584  13.1663
580 	2.17082  13.123
585 	2.06052  12.8089
590 	1.95681  13.1688
595 	1.86157  13.0484
600 	1.76645  12.9555
605 	1.67649  13.1135
610 	1.59243  12.9743
615 	1.51752  12.8072
620 	1.44774  12.9264
625 	1.37806  13.0578
630 	1.30884  13.2149
635 	1.24465  12.9952
640 	1.18508  13.173
645 	1.12974  12.8793
650 	1.08047  12.9575
655 	1.03087  13.1015
660 	0.981828  13.2156
665 	0.934859  13.1495
670 	0.892535  13.1479
675 	0.851836  13.1774
680 	0.813163  13.2073
685 	0.776334  13.1745
690 	0.741622  13.1849
695 	0.708497  13.1928
700 	0.677259  13.2583
705 	0.647281  13.2892
710 	0.619209  13.3606
715 	0.592224  13.3862
720 	0.567269  13.4088
725 	0.543133  13.4882
730 	0.520164  13.5137
735 	0.497146  13.5459
740 	0.477052  13.6138
745 	0.457041  13.6397
750 	0.437009  13.6785
755 	0.419022  13.7007
760 	0.401888  13.782
765 	0.384857  13.8149
770 	0.369816  13.8324
775 	0.354842  13.8677
780 	0.339672  13.9475
785 	0.326626  13.9694
790 	0.312596  14.0176
795 	0.300457  14.0908
800 	0.288396  14.1149
805 	0.277341  14.1425
810 	0.266073  14.177
815 	0.254922  14.2721
820 	0.244866  14.3034
825 	0.235635  14.3475
830 	0.226532  14.3895
835 	0.217309  14.4336
840 	0.209274  14.4493
845 	0.201152  14.5336
850 	0.192979  14.5966
855 	0.185923  14.6315
860 	0.178718  14.6774
865 	0.171653  14.7153
870 	0.164543  14.8089
875 	0.158389  14.8425
880 	0.152359  14.867
885 	0.147204  14.9224
890 	0.141088  15.0128
895 	0.136011  15.0096
900 	0.130931  15.0806
905 	0.125868  15.1762
910 	0.1218  15.1514
915 	0.116718  15.2446
920 	0.112638  15.3262
925 	0.108617  15.3538
930 	0.104507  15.3998
935 	0.100444  15.4833
940 	0.0968237  15.5149
945 	0.0932657  15.5923
950 	0.0898112  15.6729
955 	0.0865572  15.6699
960 	0.0834102  15.7449
965 	0.0804756  15.8326
970 	0.0775584  15.8687
975 	0.0748161  15.9426
980 	0.0721752  16.0179
985 	0.0695311  16.0181
990 	0.067093  16.0962
995 	0.0646722  16.1432
1000 	0.0624391  16.2195
1005 	0.0602317  16.2524
1010 	0.0582097  16.3358
1015 	0.0562005  16.369
1020 	0.05417  16.4512
1025 	0.0523424  16.4375
1030 	0.0505204  16.5325
1035 	0.0488126  16.562
1040 	0.0471053  16.5943
1045 	0.0455808  16.6644
1050 	0.0439731  16.6985
1055 	0.042552  16.8004
1060 	0.0410441  16.8366
1065 	0.0397376  16.8632
1070 	0.0384145  16.9362
1075 	0.0371126  16.9894
1080 	0.0358894  16.9815
1085 	0.0346665  17.0692
1090 	0.0334597  17.1012
1095 	0.0324417  17.1689
1100 	0.0313372  17.2245
1105 	0.0303301  17.2581
1110 	0.0293082  17.3588
1115 	0.028402  17.396
1120 	0.027369  17.4568
1125 	0.0265647  17.4822
1130 	0.0256493  17.5958
1135 	0.0248414  17.6324
1140 	0.0240272  17.7108
1145 	0.0232073  17.7299
1150 	0.0224935  17.8068
1155 	0.0217885  17.8353
1160 	0.0210738  17.9581
1165 	0.0203671  18.0072
1170 	0.0197444  18.0459
1175 	0.0191402  18.0791
1180 	0.0185254  18.1758
1185 	0.0179203  18.2092
1190 	0.0174007  18.2528
1195 	0.0167944  18.3108
1200 	0.0162846  18.4017
1205 	0.0157704  18.4962
1210 	0.0152578  18.491
1215 	0.014745  18.5983
1220 	0.0143423  18.6099
1225 	0.0139255  18.6562
1230 	0.0134218  18.704
1235 	0.0129991  18.9004
1240 	0.0125998  18.8
1245 	0.0121898  18.8862
1250 	0.0118571  19.2078
1255 	0.0114726  18.9565
1260 	0.0111316  19.3885
1265 	0.0107587  19.1136
1270 	0.0104346  19.2941
1275 	0.010118  19.3682
1280 	0.00980699  19.4994
1285 	0.00950018  19.5837
1290 	0.00921049  19.6208
1295 	0.00893137  19.77
1300 	0.0086557  19.8532
1305 	0.00839044  19.938
1310 	0.00813531  20.0215
1315 	0.00789047  20.1048
1320 	0.00765264  20.2666
1325 	0.00741995  20.3209
1330 	0.00720162  20.473
1335 	0.0069817  20.4833
1340 	0.00677688  20.6716
1345 	0.00657365  20.7687
1350 	0.00637816  20.8815
1355 	0.0061846  20.9629
1360 	0.00600128  21.0402
1365 	0.00582403  21.2046
1370 	0.00564975  21.3367
1375 	0.00548729  21.404
1380 	0.00532245  21.6145
1385 	0.00516408  21.5896
1390 	0.00500997  21.6988
1395 	0.00486428  21.8769
1400 	0.00472062  21.9859
1405 	0.00457838  22.0522
1410 	0.00444646  22.1098
1415 	0.00431954  22.3156
1420 	0.00418555  22.3442
1425 	0.00406326  22.4556
1430 	0.00394673  22.6671
1435 	0.00382517  22.7321
1440 	0.00371903  22.9433
1445 	0.00360627  22.9688
1450 	0.00350484  23.0346
1455 	0.0033998  23.237
1460 	0.00329856  23.3314
1465 	0.00320875  23.3443
1470 	0.00311287  23.5932
1475 	0.00302138  23.5899
1480 	0.0029364  23.8261
1485 	0.00285079  23.6633
1490 	0.00276624  23.9217
1495 	0.00269197  24.1416
1500 	0.00261222  24.1631
1505 	0.00253875  24.3735
1510 	0.00247025  24.4485
1515 	0.00239664  24.6732
1520 	0.00232753  24.6651
1525 	0.00226595  24.9068
1530 	0.00220017  24.7012
1535 	0.00213696  24.926
1540 	0.00208593  25.1365
1545 	0.00202257  25.3823
1550 	0.0019636  25.3454
1555 	0.00191116  25.662
1560 	0.0018585  25.8822
1565 	0.00181034  25.796
1570 	0.00175834  26.0932
1575 	0.00170917  26.0678
1580 	0.00166086  25.9705
1585 	0.00161877  26.1877
1590 	0.00157092  26.1465
1595 	0.00152798  26.4102
1600 	0.00148553  26.6472
1605 	0.00144251  26.9422
1610 	0.00140383  26.7641
1615 	0.00136078  27.0766
1620 	0.00132858  27.3245
1625 	0.00128986  27.1445
1630 	0.00125766  27.4026
1635 	0.00121903  27.2976
1640 	0.00118487  27.6863
1645 	0.00115306  27.9321
1650 	0.00112118  28.1032
1655 	0.00109063  28.2205
1660 	0.00106015  28.3336
1665 	0.00103  28.3145
1670 	0.00100058  28.4227
1675 	0.000972424  28.5388
1680 	0.000946146  28.6347
1685 	0.000920175  28.8298
1690 	0.000894516  28.8925
1695 	0.000870061  29.0242
1700 	0.000846524  29.1726
1705 	0.000823556  29.2629
1710 	0.000801102  29.4038
1715 	0.000780508  29.4979
1720 	0.000759081  29.638
1725 	0.000738959  29.7268
1730 	0.00071944  29.8281
1735 	0.000700094  29.96
1740 	0.000681169  30.0109
1745 	0.000663196  30.1652
1750 	0.000646271  30.2417
1755 	0.000628653  30.3182
1760 	0.00061246  30.4234
1765 	0.000596726  30.519
1770 	0.000580561  30.641
1775 	0.000564995  30.6936
1780 	0.000550449  30.8778
1785 	0.000535537  31.0345
1790 	0.000521567  31.0842
1795 	0.000507639  31.2144
1800 	0.000494604  31.3049
1805 	0.000481468  31.3967
1810 	0.000468566  31.5167
1815 	0.00045642  31.6391
1820 	0.000443888  31.8513
1825 	0.000433133  31.9279
1830 	0.000420932  32.0682
1835 	0.000409923  32.1237
1840 	0.000399551  32.3032
1845 	0.000388621  32.4496
1850 	0.000378227  32.6422
1855 	0.000368147  32.7273
1860 	0.000359063  32.9325
1865 	0.000348978  33.0239
1870 	0.000339637  33.2109
1875 	0.000331521  33.437
1880 	0.000322607  33.4553
1885 	0.000314258  33.6613
1890 	0.000306048  33.8375
1895 	0.000297806  34.1003
1900 	0.000289986  34.0784
1905 	0.000282839  34.2301
1910 	0.00027504  34.2827
1915 	0.000267844  34.434
1920 	0.000260595  34.6473
1925 	0.000254625  34.7808
1930 	0.000247335  34.9987
1935 	0.000241262  35.1189
1940 	0.000234596  35.0816
1945 	0.000228387  35.2599
1950 	0.000223058  35.6109
1955 	0.000217311  35.5372
1960 	0.000211162  35.6857
1965 	0.000206251  35.7757
1970 	0.000200737  36.2081
1975 	0.000195694  36.2961
1980 	0.000190682  36.465
1985 	0.000185629  36.5595
1990 	0.000180592  36.6756
1995 	0.000175997  36.5186
2000 	0.000171615  36.8769
2005 	0.000167229  37.2526
2010 	0.000162636  37.0951
2015 	0.000158685  37.1186
2020 	0.00015472  37.1404
2025 	0.000151003  37.8493
2030 	0.000147057  37.9647
2035 	0.000143081  38.0117
2040 	0.00013954  37.6248
2045 	0.000136088  38.163
2050 	0.000132986  38.4295
2055 	0.000129168  38.3045
2060 	0.000126038  38.5093
2065 	0.000122947  38.6767
2070 	0.000119917  38.8746
2075 	0.000116863  39.0064
2080 	0.000113848  39.0935
2085 	0.00011089  39.1331
2090 	0.000107928  39.2455
2095 	0.000105687  39.6278
2100 	0.000102747  39.6182
2105 	0.000100124  39.717
2110 	9.75697e-05  39.8632
2115 	9.51727e-05  40.0244
2120 	9.27492e-05  40.151
2125 	9.04111e-05  40.2787
2130 	8.80739e-05  40.4088
2135 	8.58847e-05  40.5571
2140 	8.37677e-05  40.6546
2145 	8.16215e-05  40.8046
2150 	7.9509e-05  40.9212
2155 	7.76043e-05  41.0951
2160 	7.55901e-05  41.1929
2165 	7.36446e-05  41.3507
2170 	7.18436e-05  41.5194
2175 	7.00364e-05  41.6296
2180 	6.82667e-05  41.8457
2185 	6.66172e-05  41.9098
2190 	6.48877e-05  42.0467
2195 	6.32891e-05  42.2349
2200 	6.16684e-05  42.3539
2205 	6.01468e-05  42.5742
2210 	5.86245e-05  42.7256
2215 	5.71417e-05  42.8522
2220 	5.57323e-05  42.9739
2225 	5.43584e-05  43.0744
2230 	5.30372e-05  43.2978
2235 	5.16378e-05  43.3906
2240 	5.03858e-05  43.7065
2245 	4.91224e-05  43.7934
2250 	4.78852e-05  43.9764
2255 	4.667e-05  44.192
2260 	4.55862e-05  44.3352
2265 	4.43894e-05  44.3951
2270 	4.33019e-05  44.5443
2275 	4.22688e-05  44.8229
2280 	4.11527e-05  44.9511
2285 	4.01636e-05  45.1057
2290 	3.91795e-05  45.2118
2295 	3.81668e-05  45.3533
2300 	3.7253e-05  45.5729
2305 	3.63202e-05  45.7752
2310 	3.54484e-05  45.8503
2315 	3.45467e-05  45.9298
2320 	3.37411e-05  46.117
2325 	3.28478e-05  46.1577
2330 	3.20439e-05  46.3633
2335 	3.12196e-05  46.5449
2340 	3.05255e-05  46.6821
2345 	2.97336e-05  46.7096
2350 	2.89819e-05  47.0604
2355 	2.82851e-05  47.2147
2360 	2.7616e-05  47.119
2365 	2.69149e-05  47.2891
2370 	2.62029e-05  47.4464
2375 	2.56081e-05  47.5754
2380 	2.49676e-05  47.881
2385 	2.43049e-05  47.8195
2390 	2.37072e-05  47.8977
2395 	2.31717e-05  48.1875
2400 	2.25798e-05  48.2964
2405 	2.198e-05  48.4535
2410 	2.14502e-05  48.7286
2415 	2.09684e-05  48.7841
2420 	2.04414e-05  49.1449
2425 	1.99517e-05  49.1326
2430 	1.94656e-05  49.1898
2435 	1.89387e-05  49.5843
2440 	1.84422e-05  49.6237
2445 	1.80342e-05  49.8531
2450 	1.75454e-05  49.9194
2455 	1.71329e-05  50.2113
2460 	1.67145e-05  50.4412
2465 	1.63243e-05  50.5147
2470 	1.59214e-05  50.7092
2475 	1.55232e-05  50.8733
2480 	1.51313e-05  50.9522
2485 	1.48033e-05  51.302
2490 	1.44105e-05  51.391
2495 	1.40268e-05  51.3983
2500 	1.3713e-05  51.7088
2505 	1.3407e-05  51.9383
2510 	1.30218e-05  51.9455
2515 	1.27185e-05  52.1416
2520 	1.24145e-05  52.274
2525 	1.21144e-05  52.4314
2530 	1.18177e-05  52.543
2535 	1.15187e-05  52.7045
2540 	1.12979e-05  53.1442
2545 	1.10092e-05  53.1663
2550 	1.07144e-05  53.2415
2555 	1.05047e-05  53.5392
2560 	1.02141e-05  53.5694
2565 	9.97241e-06  53.7447
2570 	9.72834e-06  53.8844
2575 	9.48988e-06  54.0065
2580 	9.25865e-06  54.1746
2585 	9.04011e-06  54.3189
2590 	8.81995e-06  54.466
2595 	8.60585e-06  54.7048
2600 	8.39675e-06  54.8323
2605 	8.1928e-06  55.0508
2610 	7.99589e-06  55.1564
2615 	7.80332e-06  55.3485
2620 	7.61039e-06  55.5497
2625 	7.42425e-06  55.6308
2630 	7.24299e-06  55.9167
2635 	7.06555e-06  56.0028
2640 	6.89334e-06  56.1933
2645 	6.72398e-06  56.3394
2650 	6.56135e-06  56.5402
2655 	6.39851e-06  56.7467
2660 	6.24982e-06  56.8759
2665 	6.09854e-06  57.0435
2670 	5.94712e-06  57.2157
2675 	5.8013e-06  57.4352
2680 	5.6629e-06  57.5291
2685 	5.51886e-06  57.7774
2690 	5.3866e-06  57.9812
2695 	5.26008e-06  58.0325
2700 	5.12741e-06  58.2457
2705 	5.00784e-06  58.3629
2710 	4.87531e-06  58.5928
2715 	4.76331e-06  58.7893
2720 	4.645e-06  58.763
2725 	4.53191e-06  59.0195
2730 	4.42348e-06  59.0884
2735 	4.31059e-06  59.3158
2740 	4.20915e-06  59.5192
2745 	4.10803e-06  59.6851
2750 	4.01086e-06  59.6952
2755 	3.90704e-06  59.8941
2760 	3.8177e-06  59.9911
2765 	3.71579e-06  60.1857
2770 	3.62648e-06  60.2954
2775 	3.5437e-06  60.5395
2780 	3.45405e-06  60.6585
2785 	3.37185e-06  60.8798
2790 	3.29362e-06  60.9116
2795 	3.2107e-06  61.1883
2800 	3.1322e-06  61.223
2805 	3.05349e-06  61.2608
2810 	2.98249e-06  61.448
2815 	2.91167e-06  61.5992
2820 	2.84177e-06  61.8161
2825 	2.77069e-06  61.9805
2830 	2.70772e-06  62.268
2835 	2.64009e-06  62.2423
2840 	2.57687e-06  62.5469
2845 	2.51852e-06  62.663
2850 	2.45908e-06  62.7219
2855 	2.39493e-06  63.0933
2860 	2.33665e-06  63.1849
2865 	2.28465e-06  63.4262
2870 	2.22499e-06  63.5085
2875 	2.17284e-06  63.7664
2880 	2.12407e-06  63.8567
2885 	2.06477e-06  63.8922
2890 	2.02279e-06  64.1528
2895 	1.97303e-06  64.3277
2900 	1.92284e-06  64.4175
2905 	1.87296e-06  64.4749
2910 	1.83206e-06  64.7541
2915 	1.79081e-06  64.949
2920 	1.74123e-06  64.9831
2925 	1.70101e-06  65.1684
2930 	1.65997e-06  65.3415
2935 	1.61935e-06  65.4858
2940 	1.57928e-06  65.6426
2945 	1.53876e-06  65.7532
2950 	1.50688e-06  66.0558
2955 	1.46735e-06  66.1395
2960 	1.42736e-06  66.1728
2965 	1.3961e-06  66.4058
2970 	1.36493e-06  66.608
2975 	1.32546e-06  66.6533
2980 	1.2947e-06  66.8201
2985 	1.26347e-06  67.026
2990 	1.23342e-06  67.1665
2995 	1.20261e-06  67.3333
3000 	1.17224e-06  67.4134
